{
  "AWSTemplateFormatVersion": "2010-09-09",
  "Description": "Lambda Function resource stack creation using Amplify CLI",
  "Parameters": {
    "CloudWatchRule": {
      "Type": "String",
      "Default": "NONE",
      "Description": " Schedule Expression"
    },
    "deploymentBucketName": {
      "Type": "String"
    },
    "env": {
      "Type": "String"
    },
    "s3Key": {
      "Type": "String"
    },
    "storageheraBucketName": {
      "Type": "String",
      "Default": "storageheraBucketName"
    },
    "functionheraappsyncArn": {
      "Type": "String",
      "Default": "functionheraappsyncArn"
    },
    "functionheramomentArn": {
      "Type": "String",
      "Default": "functionheramomentArn"
    },
    "apiheraGraphQLAPIIdOutput": {
      "Type": "String",
      "Default": "apiheraGraphQLAPIIdOutput"
    },
    "apiheraGraphQLAPIEndpointOutput": {
      "Type": "String",
      "Default": "apiheraGraphQLAPIEndpointOutput"
    },
    "metricGroupName": {
      "Type": "String"
    },
    "pinPointRegion": {
      "Type": "String"
    },
    "projectId": {
      "Type": "String"
    },
    "senderEmail": {
      "Type": "String"
    },
    "supportEmail": {
      "Type": "String"
    },
    "testEnvSmsNumber": {
      "Type": "String"
    },
    "windowOrigin": {
      "Type": "String"
    }
  },
  "Conditions": {
    "ShouldNotCreateEnvResources": {
      "Fn::Equals": [
        {
          "Ref": "env"
        },
        "NONE"
      ]
    }
  },
  "Resources": {
    "LambdaFunction": {
      "Type": "AWS::Lambda::Function",
      "Metadata": {
        "aws:asset:path": "./src",
        "aws:asset:property": "Code"
      },
      "Properties": {
        "Code": {
          "S3Bucket": {
            "Ref": "deploymentBucketName"
          },
          "S3Key": {
            "Ref": "s3Key"
          }
        },
        "Handler": "index.handler",
        "FunctionName": {
          "Fn::If": [
            "ShouldNotCreateEnvResources",
            "ProcessPerformanceData",
            {
              "Fn::Join": [
                "",
                [
                  "ProcessPerformanceData",
                  "-",
                  {
                    "Ref": "env"
                  }
                ]
              ]
            }
          ]
        },
        "Environment": {
          "Variables": {
            "ENV": {
              "Ref": "env"
            },
            "REGION": {
              "Ref": "AWS::Region"
            },
            "STORAGE_HERA_BUCKETNAME": {
              "Ref": "storageheraBucketName"
            },
            "API_HERA_GRAPHQLAPIIDOUTPUT": {
              "Ref": "apiheraGraphQLAPIIdOutput"
            },
            "API_HERA_GRAPHQLAPIENDPOINTOUTPUT": {
              "Ref": "apiheraGraphQLAPIEndpointOutput"
            },
            "METRIC_GROUP_NAME": {
              "Ref": "metricGroupName"
            },
            "PIN_POINT_REGION": {
              "Ref": "pinPointRegion"
            },
            "PROJECT_ID": {
              "Ref": "projectId"
            },
            "SENDER_EMAIL": {
              "Ref": "senderEmail"
            },
            "SUPPORT_EMAIL": {
              "Ref": "supportEmail"
            },
            "TEST_ENV_SMS_NUMBER": {
              "Ref": "testEnvSmsNumber"
            },
            "WINDOW_ORIGIN": {
              "Ref": "windowOrigin"
            }
          }
        },
        "Role": {
          "Fn::GetAtt": [
            "LambdaExecutionRole",
            "Arn"
          ]
        },
        "Runtime": "nodejs16.x",
        "Layers": [
          {
            "Ref": "functionheraappsyncArn"
          },
          {
            "Ref": "functionheramomentArn"
          }
        ],
        "Timeout": 900,
        "MemorySize": 4096
      }
    },
    "LambdaExecutionRole": {
      "Type": "AWS::IAM::Role",
      "Properties": {
        "RoleName": {
          "Fn::If": [
            "ShouldNotCreateEnvResources",
            "heraLambdaRole39527131",
            {
              "Fn::Join": [
                "",
                [
                  "heraLambdaRole39527131",
                  "-",
                  {
                    "Ref": "env"
                  }
                ]
              ]
            }
          ]
        },
        "AssumeRolePolicyDocument": {
          "Version": "2012-10-17",
          "Statement": [
            {
              "Effect": "Allow",
              "Principal": {
                "Service": [
                  "lambda.amazonaws.com"
                ]
              },
              "Action": [
                "sts:AssumeRole"
              ]
            }
          ]
        }
      }
    },
    "lambdaexecutionpolicy": {
      "DependsOn": [
        "LambdaExecutionRole"
      ],
      "Type": "AWS::IAM::Policy",
      "Properties": {
        "PolicyName": "lambda-execution-policy",
        "Roles": [
          {
            "Ref": "LambdaExecutionRole"
          }
        ],
        "PolicyDocument": {
          "Version": "2012-10-17",
          "Statement": [
            {
              "Effect": "Allow",
              "Action": [
                "logs:CreateLogGroup",
                "logs:CreateLogStream",
                "logs:PutLogEvents"
              ],
              "Resource": {
                "Fn::Sub": [
                  "arn:aws:logs:${region}:${account}:log-group:/aws/lambda/${lambda}:log-stream:*",
                  {
                    "region": {
                      "Ref": "AWS::Region"
                    },
                    "account": {
                      "Ref": "AWS::AccountId"
                    },
                    "lambda": {
                      "Ref": "LambdaFunction"
                    }
                  }
                ]
              }
            }
          ]
        }
      }
    },
    "AmplifyResourcesPolicy": {
      "DependsOn": [
        "LambdaExecutionRole"
      ],
      "Type": "AWS::IAM::Policy",
      "Properties": {
        "PolicyName": "amplify-lambda-execution-policy",
        "Roles": [
          {
            "Ref": "LambdaExecutionRole"
          }
        ],
        "PolicyDocument": {
          "Version": "2012-10-17",
          "Statement": [
            {
              "Effect": "Allow",
              "Action": [
                "appsync:Create*",
                "appsync:StartSchemaCreation",
                "appsync:GraphQL",
                "appsync:Get*",
                "appsync:List*",
                "appsync:Update*",
                "appsync:Delete*"
              ],
              "Resource": [
                {
                  "Fn::Join": [
                    "",
                    [
                      "arn:aws:appsync:",
                      {
                        "Ref": "AWS::Region"
                      },
                      ":",
                      {
                        "Ref": "AWS::AccountId"
                      },
                      ":apis/",
                      {
                        "Ref": "apiheraGraphQLAPIIdOutput"
                      },
                      "/*"
                    ]
                  ]
                },
                {
                  "Fn::Join": [
                    "",
                    [
                      "arn:aws:appsync:",
                      {
                        "Ref": "AWS::Region"
                      },
                      ":",
                      {
                        "Ref": "AWS::AccountId"
                      },
                      ":apis/",
                      {
                        "Ref": "apiheraGraphQLAPIIdOutput"
                      }
                    ]
                  ]
                }
              ]
            },
            {
              "Effect": "Allow",
              "Action": "s3:ListBucket",
              "Resource": [
                {
                  "Fn::Join": [
                    "",
                    [
                      "arn:aws:s3:::",
                      {
                        "Ref": "storageheraBucketName"
                      }
                    ]
                  ]
                }
              ]
            },
            {
              "Effect": "Allow",
              "Action": [
                "s3:PutObject",
                "s3:GetObject",
                "s3:DeleteObject"
              ],
              "Resource": [
                {
                  "Fn::Join": [
                    "",
                    [
                      "arn:aws:s3:::",
                      {
                        "Ref": "storageheraBucketName"
                      },
                      "/*"
                    ]
                  ]
                }
              ]
            }
          ]
        }
      }
    }
  },
  "Outputs": {
    "Name": {
      "Value": {
        "Ref": "LambdaFunction"
      }
    },
    "Arn": {
      "Value": {
        "Fn::GetAtt": [
          "LambdaFunction",
          "Arn"
        ]
      }
    },
    "Region": {
      "Value": {
        "Ref": "AWS::Region"
      }
    },
    "LambdaExecutionRole": {
      "Value": {
        "Ref": "LambdaExecutionRole"
      }
    }
  }
}