{
  "lambdaLayers": [
    {
      "type": "ProjectLayer",
      "resourceName": "herananoid",
      "env": "devqa",
      "version": "Always choose latest version",
      "isLatestVersionSelected": true
    }
  ],
  "permissions": {
    "storage": {
      "Staff:@model(appsync)": [
        "create",
        "read",
        "update",
        "delete"
      ],
      "MessagePreferencesHistory:@model(appsync)": [
        "create",
        "read",
        "update",
        "delete"
      ]
    }
  }
}