{
  "Records": [
    {
      "eventID": "eb2c463f0e4a523e8a67d282b2a4b17a",
      "eventName": "INSERT",
      "eventVersion": "1.1",
      "eventSource": "aws:dynamodb",
      "awsRegion": "us-east-2",
      "dynamodb": {
        "ApproximateCreationDateTime": 1595094705,
        "Keys": {
          "id": {
            "S": "cea28a27-fb85-4fdc-aa60-ec8ad9c3d28f"
          }
        },
        "NewImage": {
          "createdAt": {
            "S": "2020-07-18T17:51:44.662Z"
          },
          "bodyText": {
            "S": "Hello World"
          },
          "subject": {
            "S": "This is the Subject"
          },
          "__typename": {
            "S": "Message"
          },
          "destinationEmail": {
            "S": "mstenquist@dbservices.com"
          },
          "bodyHtml": {
            "S": "<!DOCTYPE html PUBLIC '-//W3C//DTD XHTML 1.0 Transitional//EN' 'http://www.w3.org/TR/xhtml1/DTD/xhtml1-transitional.dtd'> \n    <html xmlns='http://www.w3.org/1999/xhtml' style='margin: 0;padding: 0;font-family: \"Helvetica Neue\", \"Helvetica\", Helvetica, Arial, sans-serif;box-sizing: border-box;font-size: 14px;'> \n    \n    <head style='margin: 0;padding: 0;font-family: \"Helvetica Neue\", \"Helvetica\", Helvetica, Arial, sans-serif;box-sizing: border-box;font-size: 14px;'> \n        <meta name='viewport' content='width=device-width' style='margin: 0;padding: 0;font-family: \"Helvetica Neue\", \"Helvetica\", Helvetica, Arial, sans-serif;box-sizing: border-box;font-size: 14px;'> \n        <meta http-equiv='Content-Type' content='text/html; charset=UTF-8' style='margin: 0;padding: 0;font-family: \"Helvetica Neue\", \"Helvetica\", Helvetica, Arial, sans-serif;box-sizing: border-box;font-size: 14px;'> \n        <title style='margin: 0;padding: 0;font-family: \"Helvetica Neue\", \"Helvetica\", Helvetica, Arial, sans-serif;box-sizing: border-box;font-size: 14px;'>Hello HTML BODY</title> \n    </head> \n    \n    <body style='margin: 0;padding: 0;font-family: \"Helvetica Neue\", \"Helvetica\", Helvetica, Arial, sans-serif;box-sizing: border-box;font-size: 14px;-webkit-font-smoothing: antialiased;-webkit-text-size-adjust: none;height: 100%;line-height: 1.6;background-color: #f6f6f6;width: 100% !important;'> \n        <table class='body-wrap' style='margin: 0;padding: 0;font-family: \"Helvetica Neue\", \"Helvetica\", Helvetica, Arial, sans-serif;box-sizing: border-box;font-size: 14px;background-color: #f6f6f6;width: 100%;'> \n            <tr style='margin: 0;padding: 0;font-family: \"Helvetica Neue\", \"Helvetica\", Helvetica, Arial, sans-serif;box-sizing: border-box;font-size: 14px;'> \n                <td style='margin: 0;padding: 0;font-family: \"Helvetica Neue\", \"Helvetica\", Helvetica, Arial, sans-serif;box-sizing: border-box;font-size: 14px;vertical-align: top;'></td> \n                <td class='container' width='600' style='margin: 0 auto !important;padding: 0;font-family: \"Helvetica Neue\", \"Helvetica\", Helvetica, Arial, sans-serif;box-sizing: border-box;font-size: 14px;vertical-align: top;display: block !important;max-width: 600px !important;clear: both !important;'> \n                    <div class='content' style='margin: 0 auto;padding: 20px;font-family: \"Helvetica Neue\", \"Helvetica\", Helvetica, Arial, sans-serif;box-sizing: border-box;font-size: 14px;max-width: 600px;display: block;'> \n                        <table class='main' width='100%' cellpadding='0' cellspacing='0' style='margin: 0;padding: 0;font-family: \"Helvetica Neue\", \"Helvetica\", Helvetica, Arial, sans-serif;box-sizing: border-box;font-size: 14px;background: #fff;border: 1px solid #e9e9e9;border-radius: 3px;'> \n                            <tr style='margin: 0;padding: 0;font-family: \"Helvetica Neue\", \"Helvetica\", Helvetica, Arial, sans-serif;box-sizing: border-box;font-size: 14px;'> \n                                <td class='content-wrap aligncenter' style='margin: 0;padding: 20px;font-family: \"Helvetica Neue\", \"Helvetica\", Helvetica, Arial, sans-serif;box-sizing: border-box;font-size: 14px;vertical-align: top;text-align: center;'> \n                                    <table width='100%' cellpadding='0' cellspacing='0' style='margin: 0;padding: 0;font-family: \"Helvetica Neue\", \"Helvetica\", Helvetica, Arial, sans-serif;box-sizing: border-box;font-size: 14px;'> \n                                        <tr style='margin: 0;padding: 0;font-family: \"Helvetica Neue\", \"Helvetica\", Helvetica, Arial, sans-serif;box-sizing: border-box;font-size: 14px;'> \n                                            <td class='content-block' style='margin: 0;padding: 0 0 20px;font-family: \"Helvetica Neue\", \"Helvetica\", Helvetica, Arial, sans-serif;box-sizing: border-box;font-size: 14px;vertical-align: top;'> \n                                                <img src='https://augustmack.com/wp-content/uploads/2019/11/logo.png'> \n                                                <p>1302 N. Meridian Street Suite 300 Indianapolis, IN 46202</p> \n                                            </td> \n                                        </tr> \n                                        <tr style='margin: 0;padding: 0;font-family: \"Helvetica Neue\", \"Helvetica\", Helvetica, Arial, sans-serif;box-sizing: border-box;font-size: 14px;'> \n                                            <td class='content-block' style='margin: 0;padding: 0 0 20px;font-family: \"Helvetica Neue\", \"Helvetica\", Helvetica, Arial, sans-serif;box-sizing: border-box;font-size: 14px;vertical-align: top;'> \n                                                <h2 style='margin: 40px 0 0;padding: 0;font-family: \"Helvetica Neue\", Helvetica, Arial, \"Lucida Grande\", sans-serif;box-sizing: border-box;font-size: 24px;color: #000;line-height: 1.2;font-weight: 400;'>Hello HTML BODY</h2> \n                                            </td> \n                                        </tr> \n                                        <tr style='margin: 0;padding: 0;font-family: \"Helvetica Neue\", \"Helvetica\", Helvetica, Arial, sans-serif;box-sizing: border-box;font-size: 14px;'> \n                                            <td class='content-block' style='margin: 0;padding: 0 0 20px;font-family: \"Helvetica Neue\", \"Helvetica\", Helvetica, Arial, sans-serif;box-sizing: border-box;font-size: 14px;vertical-align: top;'> \n                                                <table class='invoice' style='margin: 40px auto;padding: 0;font-family: \"Helvetica Neue\", \"Helvetica\", Helvetica, Arial, sans-serif;box-sizing: border-box;font-size: 14px;text-align: left;width: 80%;'> \n                                                    <tr style='margin: 0;padding: 0;font-family: \"Helvetica Neue\", \"Helvetica\", Helvetica, Arial, sans-serif;box-sizing: border-box;font-size: 14px;'> \n                                                        <td style='margin: 0;padding: 5px 0;font-family: \"Helvetica Neue\", \"Helvetica\", Helvetica, Arial, sans-serif;box-sizing: border-box;font-size: 14px;vertical-align: top;'> \n                                                            undefined \n                                                        </td> \n                                                    </tr> \n                                                </table> \n                                            </td> \n                                        </tr> \n                                        <tr style='margin: 0;padding: 0;font-family: \"Helvetica Neue\", \"Helvetica\", Helvetica, Arial, sans-serif;box-sizing: border-box;font-size: 14px;'> \n    \n                                        </tr> \n                                        <tr style='margin: 0;padding: 0;font-family: \"Helvetica Neue\", \"Helvetica\", Helvetica, Arial, sans-serif;box-sizing: border-box;font-size: 14px;'> \n                                            <td class='content-block' style='margin: 0;padding: 0 0 20px;font-family: \"Helvetica Neue\", \"Helvetica\", Helvetica, Arial, sans-serif;box-sizing: border-box;font-size: 14px;vertical-align: top;'> \n                                                Sent 7/18/2020 1:15:52 PM \n                                            </td> \n                                        </tr> \n                                    </table> \n                                </td> \n                            </tr> \n                        </table> \n                        <div class='footer' style='margin: 0;padding: 20px;font-family: \"Helvetica Neue\", \"Helvetica\", Helvetica, Arial, sans-serif;box-sizing: border-box;font-size: 14px;width: 100%;clear: both;color: #999;'> \n                            <table width='100%' style='margin: 0;padding: 0;font-family: \"Helvetica Neue\", \"Helvetica\", Helvetica, Arial, sans-serif;box-sizing: border-box;font-size: 14px;'> \n                                <tr style='margin: 0;padding: 0;font-family: \"Helvetica Neue\", \"Helvetica\", Helvetica, Arial, sans-serif;box-sizing: border-box;font-size: 14px;'> \n                                    <td class='aligncenter content-block' style='margin: 0;padding: 0 0 20px;font-family: \"Helvetica Neue\", \"Helvetica\", Helvetica, Arial, sans-serif;box-sizing: border-box;font-size: 12px;vertical-align: top;text-align: center;'>Questions? Email <a href='mailto:abosworth@dbservices.com' style='margin: 0;padding: 0;font-family: \"Helvetica Neue\", \"Helvetica\", Helvetica, Arial, sans-serif;box-sizing: border-box;font-size: 12px;color: #999;text-decoration: underline;'>info@ecapsolutions.com</a></td> \n                                </tr> \n                            </table> \n                        </div> \n                    </div> \n                </td> \n                <td style='margin: 0;padding: 0;font-family: \"Helvetica Neue\", \"Helvetica\", Helvetica, Arial, sans-serif;box-sizing: border-box;font-size: 14px;vertical-align: top;'></td> \n            </tr> \n        </table> \n    \n    </body> \n    \n    </html>"
          },
          "channelType": {
            "S": "SMS/EMAIL"
          },
          "id": {
            "S": "cea28a27-fb85-4fdc-aa60-ec8ad9c3d28f"
          },
          "messageTenantId": {
            "S": "f8c2bcc3-c7bd-4251-8b24-dad827996351"
          },
          "destinationNumber": {
            "S": "8016789364"
          },
          "messageStaffId": {
            "S": "ffa9a419-4c9d-4191-a502-aed6237e5fd5"
          },
          "updatedAt": {
            "S": "2020-07-18T17:51:44.662Z"
          }
        },
        "SequenceNumber": "4828100000000004056289420",
        "SizeBytes": 9417,
        "StreamViewType": "NEW_AND_OLD_IMAGES"
      },
      "eventSourceARN": "arn:aws:dynamodb:us-east-2:530079012632:table/Message-4ffnbe7h2bbsndoip2ksbuhxka-masondev/stream/2020-07-17T16:15:56.333"
    }
  ]
}