<svg id="food" xmlns="http://www.w3.org/2000/svg" viewBox="0 0 88 88">
  <defs>
    <style>
      .cls-1 {
        fill: #fff;
      }
    </style>
  </defs>
  <g id="Group_1017" data-name="Group 1017" transform="translate(19.513 18.25)">
    <g id="Group_1016" data-name="Group 1016">
      <path id="Path_1839" data-name="Path 1839" class="cls-1" d="M160.438,149.3l-42.7-42.7a1.425,1.425,0,0,0-2.114.109,11.314,11.314,0,0,0-2.082,6.421c-.173,5.117,2.449,10.422,7.793,15.766l10.7,10.7a4.883,4.883,0,0,0,6.905,0,.3.3,0,0,1,.428,0l1.729,1.729c.066.066.039.237-.023.371a4.9,4.9,0,0,0,.988,5.484l10.253,10.253a5.747,5.747,0,1,0,8.127-8.127Zm-2.016,6.112a2.9,2.9,0,0,1-4.1,0l-10.253-10.253a2.041,2.041,0,0,1-.412-2.282,3.145,3.145,0,0,0-.554-3.572l-1.729-1.729a3.154,3.154,0,0,0-4.461,0,2.032,2.032,0,0,1-2.873,0l-10.7-10.7c-8.277-8.277-7.37-14.308-6.3-16.934l41.372,41.372A2.9,2.9,0,0,1,158.422,155.41Z" transform="translate(-113.532 -106.18)"/>
    </g>
  </g>
  <g id="Group_1019" data-name="Group 1019" transform="translate(56.178 21.18)">
    <g id="Group_1018" data-name="Group 1018">
      <path id="Path_1840" data-name="Path 1840" class="cls-1" d="M338.385,123.649a1.425,1.425,0,0,0-2.016,0l-9.1,9.1a1.425,1.425,0,1,0,2.016,2.016l9.1-9.1A1.426,1.426,0,0,0,338.385,123.649Z" transform="translate(-326.854 -123.232)"/>
    </g>
  </g>
  <g id="Group_1021" data-name="Group 1021" transform="translate(47.179 16.144)">
    <g id="Group_1020" data-name="Group 1020">
      <path id="Path_1841" data-name="Path 1841" class="cls-1" d="M291.155,94.345a1.425,1.425,0,0,0-2.016,0l-9.273,9.273a7.454,7.454,0,0,0-2.3,4.956l-.064,2.653-2.584,2.584a1.425,1.425,0,1,0,2.016,2.016l2.988-2.988a1.426,1.426,0,0,0,.417-.974l.077-3.223a4.668,4.668,0,0,1,1.468-3.008l9.273-9.273A1.425,1.425,0,0,0,291.155,94.345Z" transform="translate(-274.499 -93.928)"/>
    </g>
  </g>
  <g id="Group_1023" data-name="Group 1023" transform="translate(18.253 49.818)">
    <g id="Group_1022" data-name="Group 1022">
      <path id="Path_1842" data-name="Path 1842" class="cls-1" d="M127.412,295.985a1.425,1.425,0,0,0-2.016,0l-11.4,11.4a2.9,2.9,0,0,1-4.1-4.1L120.9,292.285a1.425,1.425,0,0,0-2.016-2.016L107.88,301.278a5.747,5.747,0,0,0,8.127,8.127l11.4-11.4A1.426,1.426,0,0,0,127.412,295.985Z" transform="translate(-106.197 -289.852)"/>
    </g>
  </g>
  <g id="Group_1025" data-name="Group 1025" transform="translate(50.846 25.267)">
    <g id="Group_1024" data-name="Group 1024">
      <path id="Path_1843" data-name="Path 1843" class="cls-1" d="M317.946,147.426a1.425,1.425,0,0,0-2.016,0l-9.273,9.273a4.408,4.408,0,0,1-3.038,1.382l-3.351-.051a1.433,1.433,0,0,0-1.03.417l-2.988,2.988a1.425,1.425,0,1,0,2.016,2.016l2.561-2.561,2.748.042a7.185,7.185,0,0,0,5.1-2.217l9.273-9.273A1.425,1.425,0,0,0,317.946,147.426Z" transform="translate(-295.834 -147.009)"/>
    </g>
  </g>
  <g id="Group_1027" data-name="Group 1027">
    <g id="Group_1026" data-name="Group 1026">
      <path id="Path_1844" data-name="Path 1844" class="cls-1" d="M75.113,12.887A44,44,0,1,0,12.887,75.113,44,44,0,1,0,75.113,12.887ZM73.1,73.1A41.149,41.149,0,0,1,14.9,14.9,41.149,41.149,0,0,1,73.1,73.1Z"/>
    </g>
  </g>
</svg>
