{
  "permissions": {
    "api": {
      "hera": [
        "create",
        "read",
        "update",
        "delete"
      ]
    },
    "storage": {
      "DailyRoster:@model(appsync)": [
        "create",
        "read",
        "update",
        "delete"
      ],
      "Message:@model(appsync)": [
        "create",
        "read",
        "update",
        "delete"
      ],
      "PendingMessage:@model(appsync)": [
        "create",
        "read",
        "update",
        "delete"
      ],
      "PodQuality:@model(appsync)": [
        "create",
        "read",
        "update",
        "delete"
      ],
      "ReplaceByRoute:@model(appsync)": [
        "create",
        "read",
        "update",
        "delete"
      ],
      "Route:@model(appsync)": [
        "create",
        "read",
        "update",
        "delete"
      ],
      "Staff:@model(appsync)": [
        "create",
        "read",
        "update",
        "delete"
      ],
      "StaffCxFeedback:@model(appsync)": [
        "create",
        "read",
        "update",
        "delete"
      ],
      "StaffMentor:@model(appsync)": [
        "create",
        "read",
        "update",
        "delete"
      ],
      "StaffScoreCard:@model(appsync)": [
        "create",
        "read",
        "update",
        "delete"
      ],
      "Tenant:@model(appsync)": [
        "create",
        "read",
        "update",
        "delete"
      ]
    }
  },
  "lambdaLayers": [
    {
      "type": "ProjectLayer",
      "resourceName": "heramoment",
      "version": "Always choose latest version",
      "isLatestVersionSelected": true
    }
  ],
  "environmentVariableList": [
    {
      "cloudFormationParameterName": "metricGroupName",
      "environmentVariableName": "METRIC_GROUP_NAME"
    },
    {
      "cloudFormationParameterName": "origin",
      "environmentVariableName": "ORIGIN"
    }
  ]
}