{
  "version": 1,
  "paths": {
    "/generate-counseling-files": {
      "name": "/generate-counseling-files",
      "lambdaFunction": "generateCounselingFiles",
      "permissions": {
        "setting": "open"
      }
    }
  }
}