<svg id="Email" xmlns="http://www.w3.org/2000/svg" width="36" height="36" viewBox="0 0 36 36">
  <defs>
    <style>
      .cls-1 {
        fill: #fff;
        stroke: #eaeaea;
        stroke-linejoin: round;
        stroke-width: 1px;
      }

      .cls-2 {
        fill: #969696;
        fill-rule: evenodd;
      }
    </style>
  </defs>
  <circle class="cls-1" cx="18" cy="18" r="15"/>
  <path id="Forma_1" data-name="Forma 1" class="cls-2" d="M931,147.5a1.982,1.982,0,0,1-.257.962l-5.052-5.653,5-4.372A1.983,1.983,0,0,1,931,139.5v8Zm-8-3.664,6.953-6.084A1.974,1.974,0,0,0,929,137.5H917a1.971,1.971,0,0,0-.953.252Zm1.938-.368-1.609,1.409a0.5,0.5,0,0,1-.658,0l-1.61-1.409-5.116,5.724A1.972,1.972,0,0,0,917,149.5h12a1.972,1.972,0,0,0,1.055-.308Zm-9.627-5.031A1.991,1.991,0,0,0,915,139.5v8a1.971,1.971,0,0,0,.257.962l5.051-5.653Z" transform="translate(-905 -125)"/>
</svg>
