<svg xmlns="http://www.w3.org/2000/svg" width="14" height="14" viewBox="0 0 14 14">
  <defs>
    <style>
      .cls-1 {
        fill: #38cc46;
      }

      .cls-2 {
        fill: #fff;
        stroke: #fff;
        stroke-linejoin: round;
        stroke-width: 1px;
        fill-rule: evenodd;
      }
    </style>
  </defs>
  <circle class="cls-1" cx="7" cy="7" r="7"/>
  <path id="Tick_copy_4" data-name="Tick copy 4" class="cls-2" d="M530.405,416.041a0.368,0.368,0,0,0-.5,0l-4.195,3.928-1.613-1.51a0.368,0.368,0,0,0-.5,0,0.315,0.315,0,0,0,0,.464l1.861,1.742a0.367,0.367,0,0,0,.5,0l4.444-4.16A0.313,0.313,0,0,0,530.405,416.041Z" transform="translate(-520 -411)"/>
</svg>
