{
  "lambdaLayers": [
    {
      "type": "ProjectLayer",
      "resourceName": "heraappsync",
      "env": "devcli",
      "version": "Always choose latest version",
      "isLatestVersionSelected": true
    },
    {
      "type": "ProjectLayer",
      "resourceName": "herapdfparse",
      "env": "devcli",
      "version": "Always choose latest version",
      "isLatestVersionSelected": true
    },
    {
      "type": "ProjectLayer",
      "resourceName": "heraexpress",
      "env": "devcli",
      "version": "Always choose latest version",
      "isLatestVersionSelected": true
    },
    {
      "type": "ProjectLayer",
      "resourceName": "heraawsserverlessexpress",
      "env": "devcli",
      "version": "Always choose latest version",
      "isLatestVersionSelected": true
    },
    {
      "type": "ProjectLayer",
      "resourceName": "heraxlsxlayer",
      "env": "devcli",
      "version": "Always choose latest version",
      "isLatestVersionSelected": true
    }
  ],
  "permissions": {
    "api": {
      "hera": [
        "create",
        "read",
        "update",
        "delete"
      ]
    },
    "storage": {
      "hera": [
        "create",
        "read",
        "update",
        "delete"
      ],
      "Staff:@model(appsync)": [
        "create",
        "read",
        "update",
        "delete"
      ],
      "Tenant:@model(appsync)": [
        "create",
        "read",
        "update",
        "delete"
      ],
      "TextractJob:@model(appsync)": [
        "create",
        "read",
        "update",
        "delete"
      ]
    }
  },
  "environmentVariableList": [
    {
      "cloudFormationParameterName": "heraUrl",
      "environmentVariableName": "HERA_URL"
    },
    {
      "cloudFormationParameterName": "metricGroupName",
      "environmentVariableName": "METRIC_GROUP_NAME"
    },
    {
      "cloudFormationParameterName": "encryptionKey",
      "environmentVariableName": "ENCRYPTION_KEY"
    }
  ]
}