{
  "lambdaLayers": [
    {
      "type": "ProjectLayer",
      "resourceName": "herastripe",
      "version": "Always choose latest version",
      "isLatestVersionSelected": true
    },
    {
      "type": "ProjectLayer",
      "resourceName": "heraexpress",
      "version": "Always choose latest version",
      "isLatestVersionSelected": true
    },
    {
      "type": "ProjectLayer",
      "resourceName": "heraexpresshandlebars",
      "version": "Always choose latest version",
      "isLatestVersionSelected": true
    },
    {
      "type": "ProjectLayer",
      "resourceName": "herasecretmanager",
      "version": "Always choose latest version",
      "isLatestVersionSelected": true
    }
  ],
  "permissions": {
    "api": {
      "hera": [
        "create",
        "read",
        "update",
        "delete"
      ]
    },
    "storage": {
      "Card:@model(appsync)": [
        "create",
        "read",
        "update",
        "delete"
      ],
      "Invoice:@model(appsync)": [
        "create",
        "read",
        "update",
        "delete"
      ],
      "InvoiceLineItem:@model(appsync)": [
        "create",
        "read",
        "update",
        "delete"
      ],
      "Message:@model(appsync)": [
        "create",
        "read",
        "update",
        "delete"
      ],
      "Tenant:@model(appsync)": [
        "create",
        "read",
        "update",
        "delete"
      ],
      "StripeQueue:@model(appsync)": [
        "create",
        "read",
        "update",
        "delete"
      ]
    }
  },
  "secretNames": [
    "STRIPE_SECRET_KEY"
  ]
}