<svg xmlns="http://www.w3.org/2000/svg" viewBox="0 0 41.898 39.935">
  <defs>
    <style>
      .cls-1 {
        fill: #13c95f;
        stroke: #13c95f;
      }
    </style>
  </defs>
  <g id="play" transform="translate(0.526 -4.613)">
    <g id="Group_992" data-name="Group 992" transform="translate(12.126 23.623)">
      <g id="Group_991" data-name="Group 991" transform="translate(0 0)">
        <path id="Path_1830" data-name="Path 1830" class="cls-1" d="M69.315,104.1a4.468,4.468,0,1,0,4.468,4.468A4.473,4.473,0,0,0,69.315,104.1Zm0,7.659a3.191,3.191,0,1,1,3.191-3.191A3.2,3.2,0,0,1,69.315,111.758Z" transform="translate(-64.847 -104.099)"/>
      </g>
    </g>
    <g id="Group_994" data-name="Group 994" transform="translate(19.785 23.623)">
      <g id="Group_993" data-name="Group 993" transform="translate(0 0)">
        <path id="Path_1831" data-name="Path 1831" class="cls-1" d="M110.274,104.1a4.468,4.468,0,1,0,4.468,4.468A4.473,4.473,0,0,0,110.274,104.1Zm0,7.659a3.191,3.191,0,1,1,3.191-3.191A3.2,3.2,0,0,1,110.274,111.758Z" transform="translate(-105.806 -104.099)"/>
      </g>
    </g>
    <g id="Group_996" data-name="Group 996" transform="translate(8.296 30.644)">
      <g id="Group_995" data-name="Group 995" transform="translate(0 0)">
        <path id="Path_1832" data-name="Path 1832" class="cls-1" d="M48.834,141.646a4.468,4.468,0,1,0,4.468,4.468A4.473,4.473,0,0,0,48.834,141.646Zm0,7.659a3.191,3.191,0,1,1,3.191-3.191A3.2,3.2,0,0,1,48.834,149.305Z" transform="translate(-44.366 -141.646)"/>
      </g>
    </g>
    <g id="Group_998" data-name="Group 998" transform="translate(15.955 30.644)">
      <g id="Group_997" data-name="Group 997" transform="translate(0 0)">
        <path id="Path_1833" data-name="Path 1833" class="cls-1" d="M89.794,141.646a4.468,4.468,0,1,0,4.468,4.468A4.473,4.473,0,0,0,89.794,141.646Zm0,7.659a3.191,3.191,0,1,1,3.191-3.191A3.2,3.2,0,0,1,89.794,149.305Z" transform="translate(-85.326 -141.646)"/>
      </g>
    </g>
    <g id="Group_1000" data-name="Group 1000" transform="translate(15.955 16.602)">
      <g id="Group_999" data-name="Group 999">
        <path id="Path_1834" data-name="Path 1834" class="cls-1" d="M89.794,66.552a4.468,4.468,0,1,0,4.468,4.468A4.473,4.473,0,0,0,89.794,66.552Zm0,7.659a3.191,3.191,0,1,1,3.191-3.191A3.2,3.2,0,0,1,89.794,74.211Z" transform="translate(-85.326 -66.552)"/>
      </g>
    </g>
    <g id="Group_1002" data-name="Group 1002" transform="translate(23.615 30.644)">
      <g id="Group_1001" data-name="Group 1001" transform="translate(0 0)">
        <path id="Path_1835" data-name="Path 1835" class="cls-1" d="M130.755,141.646a4.468,4.468,0,1,0,4.468,4.468A4.473,4.473,0,0,0,130.755,141.646Zm0,7.659a3.191,3.191,0,1,1,3.191-3.191A3.2,3.2,0,0,1,130.755,149.305Z" transform="translate(-126.287 -141.646)"/>
      </g>
    </g>
    <g id="Group_1005" data-name="Group 1005" transform="translate(0 5.113)">
      <g id="Group_1004" data-name="Group 1004" transform="translate(0 0)">
        <g id="Group_1003" data-name="Group 1003">
          <path id="Path_1836" data-name="Path 1836" class="cls-1" d="M40.631,41.257,22.164,6.152a1.977,1.977,0,0,0-3.48,0L.215,41.257a1.887,1.887,0,0,0,.077,1.885,1.956,1.956,0,0,0,1.664.906H38.891a1.956,1.956,0,0,0,1.664-.906A1.889,1.889,0,0,0,40.631,41.257Zm-1.155,1.2a.694.694,0,0,1-.585.312H1.956a.694.694,0,0,1-.585-.313.6.6,0,0,1-.025-.607L19.813,6.746a.7.7,0,0,1,1.221,0L39.5,41.851A.6.6,0,0,1,39.476,42.459Z" transform="translate(0 -5.113)"/>
        </g>
      </g>
    </g>
  </g>
</svg>
