<svg xmlns="http://www.w3.org/2000/svg" width="22.004" height="22.001" viewBox="0 0 22.004 22.001">
  <g id="settings" transform="translate(-0.001 -0.997)">
    <path id="Path_3593" data-name="Path 3593" d="M9.42,6.37A3.973,3.973,0,0,0,6.576,7.542a4.052,4.052,0,0,0,0,5.759,4.033,4.033,0,0,0,5.689,0,4.053,4.053,0,0,0,0-5.758A3.973,3.973,0,0,0,9.42,6.37Zm2.519,4.051a2.563,2.563,0,0,1-.753,1.779,2.53,2.53,0,0,1-3.531,0,2.474,2.474,0,0,1,0-3.558,2.529,2.529,0,0,1,3.529,0A2.563,2.563,0,0,1,11.939,10.421Z" transform="translate(1.58 1.58)" fill="#7d8999"/>
    <path id="Path_3594" data-name="Path 3594" d="M19,9.038l-.258-.627c1.233-2.858,1.185-3.044.8-3.437L17.946,3.389a.822.822,0,0,0-.561-.227c-.155,0-.443,0-2.814,1.088l-.649-.267C12.78,1.1,12.619,1,12.079,1H9.828c-.545,0-.718.111-1.778,3l-.645.268A9.677,9.677,0,0,0,4.55,3.226a.833.833,0,0,0-.561.228L2.4,5.042c-.4.406-.445.592.856,3.395l-.259.625C.093,10.208,0,10.355,0,10.92v2.245c0,.574.1.736,3.006,1.8l.258.624c-1.236,2.864-1.2,3.033-.8,3.434l1.587,1.586a.814.814,0,0,0,.563.233c.155,0,.442,0,2.814-1.1l.65.269C9.224,22.9,9.384,23,9.924,23h2.252c.556,0,.711-.1,1.778-3l.649-.268a9.676,9.676,0,0,0,2.852,1.038.82.82,0,0,0,.56-.228l1.6-1.591c.4-.407.443-.594-.859-3.393l.258-.625c2.9-1.149,3-1.295,3-1.863V10.826C22,10.26,21.9,10.1,19,9.038Zm-1.27,4.993-.517,1.251a.8.8,0,0,0,.015.636c.341.725.783,1.715.99,2.249l-.968.967c-.474-.173-1.415-.554-2.341-.956a.753.753,0,0,0-.586,0l-1.253.517a.756.756,0,0,0-.261.178.776.776,0,0,0-.168.271c-.325.892-.692,1.83-.9,2.3H10.35c-.247-.519-.67-1.541-.976-2.314a.775.775,0,0,0-.167-.259.761.761,0,0,0-.254-.172L7.7,18.186a.754.754,0,0,0-.6.014c-.9.416-1.808.815-2.282,1l-.967-.967c.175-.483.56-1.429.948-2.317a.8.8,0,0,0,0-.615L4.281,14.05a.782.782,0,0,0-.179-.263.764.764,0,0,0-.267-.168c-.764-.278-1.778-.666-2.308-.9V11.373c.517-.242,1.532-.663,2.318-.967a.767.767,0,0,0,.257-.167.783.783,0,0,0,.172-.256l.519-1.251A.8.8,0,0,0,4.776,8.1c-.4-.856-.8-1.772-.987-2.252l.966-.967c.53.189,1.556.612,2.346.954a.749.749,0,0,0,.586,0l1.248-.518A.747.747,0,0,0,9.2,5.134a.768.768,0,0,0,.167-.272c.326-.895.692-1.833.9-2.3h1.386c.218.459.605,1.384.973,2.316a.779.779,0,0,0,.168.259.763.763,0,0,0,.254.172l1.252.516a.746.746,0,0,0,.6-.012c.76-.354,1.756-.8,2.283-1l.967.967c-.175.484-.561,1.43-.949,2.315a.808.808,0,0,0,0,.618l.516,1.253a.778.778,0,0,0,.18.264.762.762,0,0,0,.27.167c.917.332,1.838.691,2.309.9v1.345c-.474.219-1.414.617-2.321.974a.757.757,0,0,0-.259.164.771.771,0,0,0-.174.255Z" transform="translate(0 0)" fill="#7d8999"/>
  </g>
</svg>
