{
  "lambdaLayers": [
    {
      "type": "ProjectLayer",
      "resourceName": "heraappsync",
      "version": "Always choose latest version",
      "isLatestVersionSelected": true
    },
    {
      "type": "ProjectLayer",
      "resourceName": "herasecretmanager",
      "version": "Always choose latest version",
      "isLatestVersionSelected": true
    }
  ],
  "permissions": {
    "api": {
      "hera": [
        "create",
        "read",
        "update",
        "delete"
      ]
    },
    "storage": {
      "Tenant:@model(appsync)": [
        "create",
        "read",
        "update",
        "delete"
      ],
      "Telnyx:@model(appsync)": [
        "create",
        "read",
        "update",
        "delete"
      ]
    }
  },
  "secretNames": [
    "TELNYX_TOKEN"
  ],
  "environmentVariableList": [
    {
      "cloudFormationParameterName": "telnyxProfileName",
      "environmentVariableName": "TELNYX_PROFILE_NAME"
    }
  ]
}