<svg xmlns="http://www.w3.org/2000/svg" xmlns:xlink="http://www.w3.org/1999/xlink" version="1.1" style="enable-background:new 0 0 29.121 29.121;" xml:space="preserve" width="29.121" height="29.121"><rect id="backgroundrect" width="100%" height="100%" x="0" y="0" fill="none" stroke="none"/>
















<g class="currentLayer" style=""><title>Layer 1</title><g id="svg_1" class="selected" fill-opacity="1" fill="#d4843a">
	<path style="" d="M21.706,6.146c1.116,0,2.02-0.898,2.02-2.016V2.02c0-1.119-0.903-2.02-2.02-2.02   s-2.019,0.9-2.019,2.02v2.111C19.688,5.248,20.59,6.146,21.706,6.146z" id="svg_2" fill="#d4843a"/>
	<path style="" d="M28.882,3.494h-4.066v1.027c0,1.695-1.377,3.076-3.075,3.076c-1.7,0-3.074-1.381-3.074-3.076V3.494   h-8.205v1.027c0,1.695-1.379,3.076-3.076,3.076s-3.075-1.38-3.075-3.076V3.494L0.208,3.443v25.678H2.26h24.604l2.049-0.006   L28.882,3.494z M26.862,27.076H2.26V10.672h24.604v16.404H26.862z" id="svg_3" fill="#d4843a"/>
	<path style="" d="M7.354,6.146c1.116,0,2.021-0.898,2.021-2.016V2.02C9.375,0.9,8.47,0,7.354,0S5.336,0.9,5.336,2.02   v2.111C5.336,5.248,6.237,6.146,7.354,6.146z" id="svg_4" fill="#d4843a"/>
	<rect x="10.468000411987305" y="12.873000144958496" style="" width="3.2309999465942383" height="2.8519999980926514" id="svg_5" fill="#d4843a"/>
	<rect x="15.692000389099121" y="12.873000144958496" style="" width="3.2339999675750732" height="2.8519999980926514" id="svg_6" fill="#d4843a"/>
	<rect x="20.53700065612793" y="12.873000144958496" style="" width="3.2309999465942383" height="2.8519999980926514" id="svg_7" fill="#d4843a"/>
	<rect x="10.468000411987305" y="17.608999252319336" style="" width="3.2309999465942383" height="2.8499999046325684" id="svg_8" fill="#d4843a"/>
	<rect x="15.692000389099121" y="17.608999252319336" style="" width="3.2339999675750732" height="2.8499999046325684" id="svg_9" fill="#d4843a"/>
	<rect x="20.53700065612793" y="17.608999252319336" style="" width="3.2309999465942383" height="2.8499999046325684" id="svg_10" fill="#d4843a"/>
	<rect x="10.468000411987305" y="22.43899917602539" style="" width="3.2309999465942383" height="2.8499999046325684" id="svg_11" fill="#d4843a"/>
	<rect x="5.335999965667725" y="17.608999252319336" style="" width="3.2290000915527344" height="2.8499999046325684" id="svg_12" fill="#d4843a"/>
	<rect x="5.335999965667725" y="22.43899917602539" style="" width="3.2290000915527344" height="2.8499999046325684" id="svg_13" fill="#d4843a"/>
	<rect x="15.692000389099121" y="22.43899917602539" style="" width="3.2339999675750732" height="2.8499999046325684" id="svg_14" fill="#d4843a"/>
	<rect x="20.53700065612793" y="22.43899917602539" style="" width="3.2309999465942383" height="2.8499999046325684" id="svg_15" fill="#d4843a"/>
</g><g id="svg_16">
</g><g id="svg_17">
</g><g id="svg_18">
</g><g id="svg_19">
</g><g id="svg_20">
</g><g id="svg_21">
</g><g id="svg_22">
</g><g id="svg_23">
</g><g id="svg_24">
</g><g id="svg_25">
</g><g id="svg_26">
</g><g id="svg_27">
</g><g id="svg_28">
</g><g id="svg_29">
</g><g id="svg_30">
</g></g></svg>