<?xml version="1.0" encoding="UTF-8"?>
<!DOCTYPE svg PUBLIC "-//W3C//DTD SVG 1.1//EN" "http://www.w3.org/Graphics/SVG/1.1/DTD/svg11.dtd">
<!-- Creator: CorelDRAW 2020 (64-Bit) -->
<svg xmlns="http://www.w3.org/2000/svg" xml:space="preserve" width="0.408425in" height="0.499969in" version="1.1" style="shape-rendering:geometricPrecision; text-rendering:geometricPrecision; image-rendering:optimizeQuality; fill-rule:evenodd; clip-rule:evenodd"
viewBox="0 0 417.25 510.77"
 xmlns:xlink="http://www.w3.org/1999/xlink"
 xmlns:xodm="http://www.corel.com/coreldraw/odm/2003">
 <defs>
  <style type="text/css">
   <![CDATA[
    .fil0 {fill:#00A5FF}
   ]]>
  </style>
 </defs>
 <g id="Layer_x0020_1">
  <metadata id="CorelCorpID_0Corel-Layer"/>
  <g id="_2176948438640">
   <path class="fil0" d="M22.78 161.92l0 258.66c0,48.85 41.35,90.21 90.2,90.21l191.28 0c48.85,0 90.2,-41.36 90.2,-90.21l0 -258.66c0,-28.14 -47,-33.48 -46.76,3.23l0.03 247.83c0.16,30.36 -16.69,51.07 -47.83,51.07l-182.59 0c-16.32,0 -26.71,-5.45 -35.07,-13.84 -8.85,-8.88 -12.84,-19.81 -12.75,-37.24l0.02 -246.73c0.27,-39.01 -46.75,-31.77 -46.75,-4.33z"/>
   <path class="fil0" d="M162.98 46.72l91.29 0 0 22.83 -91.29 0 0 -22.83zm-47.82 -20.65l0 43.47 -92.38 0c-30.62,0 -29.71,46.73 -1.09,46.73l373.86 0c28.63,0 29.54,-46.73 -1.09,-46.73l-92.38 0 0 -43.47c0,-14.95 -10.01,-26.08 -25,-26.08l-136.94 0c-14.99,0 -25,11.14 -25,26.08z"/>
   <path class="fil0" d="M231.45 208.65l0 163.02c0,30.62 46.73,29.71 46.73,1.09l0 -165.19c0,-28.63 -46.73,-29.54 -46.73,1.09z"/>
   <path class="fil0" d="M139.07 207.57l0 165.19c0,28.8 46.73,29.32 46.73,-1.09l0 -163.02c0,-30.62 -46.73,-29.71 -46.73,-1.09z"/>
  </g>
 </g>
</svg>
