<?xml version="1.0" encoding="UTF-8"?>
<!DOCTYPE svg PUBLIC "-//W3C//DTD SVG 1.1//EN" "http://www.w3.org/Graphics/SVG/1.1/DTD/svg11.dtd">
<!-- Creator: CorelDRAW 2020 (64-Bit) -->
<svg xmlns="http://www.w3.org/2000/svg" xml:space="preserve" width="6.66666in" height="6.66666in" version="1.1" style="shape-rendering:geometricPrecision; text-rendering:geometricPrecision; image-rendering:optimizeQuality; fill-rule:evenodd; clip-rule:evenodd"
viewBox="0 0 6666.66 6666.66"
 xmlns:xlink="http://www.w3.org/1999/xlink"
 xmlns:xodm="http://www.corel.com/coreldraw/odm/2003">
 <defs>
  <style type="text/css">
   <![CDATA[
    .fil0 {fill:#468CCB}
   ]]>
  </style>
 </defs>
 <g id="Layer_x0020_1">
  <metadata id="CorelCorpID_0Corel-Layer"/>
  <g id="_2042671212336">
   <path class="fil0" d="M1899.79 4006.3l87.71 0 0 65.78 -87.71 0 0 -65.78zm-306.98 0l43.86 0 0 65.78 -43.86 0 0 -65.78zm263.13 65.78l-87.71 0 0 -679.74 350.83 0 0 679.74 -87.7 0 0 -109.63 -175.42 0 0 109.63zm-306.98 0l-43.85 0 0 -592.03 219.27 0 0 592.03 -43.85 0 0 -109.63 -131.56 0 0 109.63zm-21.93 -767.44c0,-27.69 43.85,-27.69 43.85,0 0,27.69 -43.85,27.69 -43.85,0zm482.39 -65.78c0,-27.69 43.85,-27.69 43.85,0 0,27.69 -43.85,27.69 -43.85,0zm-350.83 -43.85c0,-27.69 43.85,-27.69 43.85,0 0,27.69 -43.85,27.69 -43.85,0zm197.34 -43.85c0,-27.69 43.85,-27.69 43.85,0 0,27.69 -43.85,27.69 -43.85,0zm-43.85 -5.48c0,20.72 1.22,30.59 14.72,48.32 33.44,43.91 29.13,-42.86 29.13,154.5l-43.85 0 0 -71.26c0,-12.55 -61.06,-56.81 -65.1,-71.94 -3.86,-14.47 5.14,-26.15 -15.41,-53.12 -28.05,-36.82 -116.84,-35.71 -116.84,48.32 0,39.79 51.6,83.62 106.89,46.59 7.66,5.13 46.59,40.78 46.59,49.33l0 52.07 -43.85 0 0 87.71 -65.78 0 0 -49.34c0,-8.63 -41.44,-46.79 -49.33,-52.07 4.79,-20.58 5.48,-7.6 5.48,-35.63 0,-33.55 -28.81,-60.3 -71.26,-60.3 -33.55,0 -60.3,28.81 -60.3,71.26 0,33.55 28.81,60.3 71.26,60.3 11.79,0 14.85,-3.2 24.67,-5.48 5.99,8.95 35.63,32.44 35.63,41.11l0 30.15 -153.49 0 0 243.94 -13.74 -21.89c-4.14,-7.99 -7.39,-14.92 -11.86,-23.77 -14.43,-28.61 -29.06,-76.5 -33.94,-108.59 -47.29,-311.48 237.53,-539.02 503.04,-472.89 133.32,33.21 227.02,110.69 286.53,234.24 11.52,23.93 19.29,51.53 25.94,78.22 17.34,69.63 14,146.92 -8.02,215.69 -8.94,27.91 -22.88,62.23 -38.51,87.57l-7.76 11.42 0 -331.65 -175.42 0c0,-50.71 -0.88,-27.56 13.7,-49.33 20.58,4.8 7.6,5.48 35.63,5.48 33.55,0 60.3,-28.81 60.3,-71.26 0,-33.55 -28.81,-60.3 -71.26,-60.3 -33.55,0 -60.3,28.81 -60.3,71.26 0,11.79 3.2,14.86 5.48,24.67 -35.13,23.53 -27.41,33.49 -27.41,79.48l-43.85 0 0 -128.82c0,-16.6 43.85,-8.13 43.85,-74 0,-33.55 -28.81,-60.3 -71.26,-60.3 -30.15,0 -60.3,30.15 -60.3,60.3zm-460.47 296.02c0,107.93 17.86,176.01 70.09,261.56 13.64,22.34 39.55,50.09 39.55,61.86l0 306.98 -306.98 0 0 43.85 1315.62 0 0 -43.85 -306.98 0 0 -306.98c0,-9.26 2.87,-11.76 7.46,-17.21 4.54,-5.38 6.65,-7.95 10.95,-13.72 19.83,-26.54 41.41,-62.3 54.46,-93.55 96.85,-231.86 1.89,-484.06 -228.16,-600.05 -114.22,-57.59 -276.95,-57.54 -391.08,0 -148.89,75.07 -264.93,223.97 -264.93,401.1z"/>
   <path class="fil0" d="M1705.19 2898.99c-21.98,5.12 -61.65,13.37 -79.48,21.93 -6.35,-9.48 -64,-60.19 -76.75,-71.26 -31.35,20.99 -66.12,38.59 -98.81,57.41 -11.5,6.63 -22.03,12.15 -32.75,19.33 1.24,14.91 7.46,36.78 10.28,50.02 3.92,18.37 7.67,34.31 11.65,51.39l-58.23 56.89c-5.28,-2.19 -90.26,-20.39 -100.74,-21.26 -6.87,10.26 -12.76,21.83 -19.34,32.74 -19.54,32.41 -36.33,67.37 -57.4,98.83 5.66,6.52 10.52,12 17.14,18.5 8.37,8.22 10.56,12.28 17.83,20.54l36.3 37.71c-5.13,10.69 -7.61,25.81 -10.94,38.39 -3.59,13.59 -7.66,26.82 -10.98,41.09 -28.61,2.38 -68.59,23.14 -98.67,30.15l0 153.49c29.74,6.93 68.99,27.68 98.67,30.15 5.12,21.98 13.37,61.65 21.93,79.48 -9.48,6.35 -60.19,64 -71.26,76.75 28.11,41.98 48.68,89.65 76.74,131.56 10.48,-0.87 95.46,-19.07 101.41,-21.93l18.55 19.83 34.19 -32.87 -38.42 -36.91c-15.3,4.04 -29.34,6.78 -45.54,10.5 -12.05,2.78 -34.47,9.3 -45.52,9.3 -4.28,0 -41.88,-65.52 -43.85,-74 12.65,-18.89 32.06,-34.83 46.19,-52.48 6.01,-7.5 11.55,-10.87 16.85,-18.78 -8.31,-35.68 -30.01,-91.46 -32.89,-126.08 -30.85,-2.57 -62.72,-24.87 -93.19,-27.41l0 -87.71c30.47,-2.54 62.34,-24.84 93.19,-27.41 2.88,-34.62 24.58,-90.4 32.89,-126.08l-30.81 -34.97c-6.73,-6.61 -10.32,-9.98 -15.78,-17.11 -5.76,-7.53 -11.46,-11.74 -16.44,-19.19 1.98,-8.49 39.57,-74 43.85,-74 19.19,0 69.94,14.41 90.45,19.19l92.54 -91.11c-1.07,-28.44 -18.53,-63.7 -18.53,-92.54 0,-4.28 65.52,-41.88 74,-43.85 7.41,4.96 9.91,9.31 17.61,15.28 19.02,14.77 33.79,34.45 53.66,47.76 21.16,-4.93 40.96,-11.51 62.46,-17.03 20.06,-5.15 41.87,-14.05 63.62,-15.86 2.63,-31.55 24.85,-62.4 27.41,-93.19l87.71 0c2.56,30.79 24.78,61.64 27.41,93.19 33.52,2.79 91.33,24.8 126.08,32.89 24.09,-16.13 46.78,-46.65 71.26,-63.04 8.49,1.98 74,39.57 74,43.85 0,29.37 -16.77,64.12 -19.19,93.19l91.13 89.77c30.02,-1.09 64.48,-17.83 95.26,-18.51 9.93,18.76 36.65,54.85 41.11,74 -12.65,18.89 -32.06,34.83 -46.19,52.48 -6.01,7.51 -11.55,10.87 -16.85,18.78 8.31,35.68 30.01,91.46 32.89,126.08 31.55,2.63 62.4,24.85 93.19,27.41l0 87.71c-30.79,2.56 -61.64,24.78 -93.19,27.41 -2.88,34.62 -24.58,90.4 -32.89,126.08l63.04 71.26c-4.46,19.15 -31.19,55.24 -41.11,74 -31.32,-0.7 -65.22,-16.63 -95.93,-19.19l-30.76 32.29c3.02,9.65 7.02,11.31 13.6,17.76 6.35,6.22 10.21,11.09 17.15,15.74l17.08 -15.81c15.5,3.13 31.59,7.03 48.47,10.56 14.99,3.13 36.5,9.42 52.31,10.74l38.37 -65.78c6.15,-11.38 13.04,-21.51 19.19,-32.89 5.68,-10.5 12.69,-23.19 19.18,-32.89 -5.66,-6.52 -10.52,-12 -17.14,-18.5l-35.6 -38.4c-8.1,-9.21 -7.75,-12.64 -18.52,-19.85 5.13,-10.69 7.61,-25.81 10.94,-38.39 3.59,-13.59 7.66,-26.82 10.98,-41.09 24.33,-2.02 72.59,-24.07 98.67,-30.15l0 -153.49c-25.21,-5.87 -74.91,-28.17 -98.67,-30.15 -3.09,-13.28 -7.17,-27.17 -10.4,-38.94 -3.82,-13.93 -6.1,-29.25 -11.52,-40.55 10.11,-6.78 9.74,-9.36 17.26,-18.38l54 -58.37c-28.11,-41.98 -48.69,-89.67 -76.74,-131.56 -31.35,2.61 -71.25,14.9 -101.41,21.93l-56.89 -58.23c6.37,-31.88 18.48,-67.29 21.26,-100.74l-98.67 -57.56c-10.5,-5.68 -23.19,-12.69 -32.89,-19.18l-39.04 34.96c-6.73,5.93 -11.2,11.52 -17.78,17.85 -7.34,7.06 -14.5,10.35 -19.93,18.44 -20.85,-10 -55.65,-16.37 -79.48,-21.93 -2.38,-28.61 -23.14,-68.59 -30.15,-98.67l-153.49 0c-3.83,16.42 -10.42,30.57 -15.29,47.75 -4.27,15.04 -13.8,38.11 -14.86,50.92z"/>
   <polygon class="fil0" points="1812.08,3918.59 2075.2,3918.59 2075.2,3874.74 1812.08,3874.74 "/>
   <polygon class="fil0" points="1548.95,3567.76 1592.81,3567.76 1592.81,3523.91 1548.95,3523.91 "/>
   <polygon class="fil0" points="1812.08,3567.76 1855.93,3567.76 1855.93,3523.91 1812.08,3523.91 "/>
   <polygon class="fil0" points="2031.35,3567.76 2075.2,3567.76 2075.2,3523.91 2031.35,3523.91 "/>
   <polygon class="fil0" points="1812.08,3655.47 1855.93,3655.47 1855.93,3611.61 1812.08,3611.61 "/>
   <polygon class="fil0" points="2031.35,3655.47 2075.2,3655.47 2075.2,3611.61 2031.35,3611.61 "/>
   <polygon class="fil0" points="1812.08,3743.18 1855.93,3743.18 1855.93,3699.32 1812.08,3699.32 "/>
   <polygon class="fil0" points="2031.35,3743.18 2075.2,3743.18 2075.2,3699.32 2031.35,3699.32 "/>
   <polygon class="fil0" points="1548.95,3787.03 1592.81,3787.03 1592.81,3743.18 1548.95,3743.18 "/>
   <polygon class="fil0" points="1812.08,3480.05 1855.93,3480.05 1855.93,3436.2 1812.08,3436.2 "/>
   <polygon class="fil0" points="2031.35,3480.05 2075.2,3480.05 2075.2,3436.2 2031.35,3436.2 "/>
   <polygon class="fil0" points="1921.72,3567.76 1965.57,3567.76 1965.57,3523.91 1921.72,3523.91 "/>
   <polygon class="fil0" points="1636.67,3567.76 1680.52,3567.76 1680.52,3523.91 1636.67,3523.91 "/>
   <polygon class="fil0" points="1921.72,3655.47 1965.57,3655.47 1965.57,3611.61 1921.72,3611.61 "/>
   <polygon class="fil0" points="1548.95,3677.4 1592.81,3677.4 1592.81,3633.54 1548.95,3633.54 "/>
   <polygon class="fil0" points="1921.72,3743.18 1965.57,3743.18 1965.57,3699.32 1921.72,3699.32 "/>
   <polygon class="fil0" points="1636.67,3787.03 1680.52,3787.03 1680.52,3743.18 1636.67,3743.18 "/>
   <polygon class="fil0" points="1812.08,3830.89 1855.93,3830.89 1855.93,3787.03 1812.08,3787.03 "/>
   <polygon class="fil0" points="2031.35,3830.89 2075.2,3830.89 2075.2,3787.03 2031.35,3787.03 "/>
   <polygon class="fil0" points="1548.95,3896.67 1592.81,3896.67 1592.81,3852.81 1548.95,3852.81 "/>
   <polygon class="fil0" points="1921.72,3480.05 1965.57,3480.05 1965.57,3436.2 1921.72,3436.2 "/>
   <polygon class="fil0" points="1636.67,3677.4 1680.52,3677.4 1680.52,3633.54 1636.67,3633.54 "/>
   <polygon class="fil0" points="1921.72,3830.89 1965.57,3830.89 1965.57,3787.03 1921.72,3787.03 "/>
   <polygon class="fil0" points="1636.67,3896.67 1680.52,3896.67 1680.52,3852.81 1636.67,3852.81 "/>
  </g>
 </g>
</svg>
