<?xml version="1.0" encoding="utf-8"?>
<!-- Generator: Adobe Illustrator 22.0.1, SVG Export Plug-In . SVG Version: 6.00 Build 0)  -->
<svg version="1.1" id="Layer_1" xmlns="http://www.w3.org/2000/svg" xmlns:xlink="http://www.w3.org/1999/xlink" x="0px" y="0px"
	 viewBox="0 0 409.6 512" style="enable-background:new 0 0 409.6 512;" xml:space="preserve">
<style type="text/css">
	.st0{fill:#E2E5E7;}
	.st1{fill:#EDEDF0;}
	.st2{fill:#B5D8F1;}
	.st3{fill:#D1E5F5;}
	.st4{fill:#97D1A6;}
	.st5{fill:#F8E99B;}
	.st6{fill:#82C993;}
</style>
<title>image_attachment</title>
<polygon class="st0" points="294.4,0 0,0 0,512 409.6,512 409.6,115.2 "/>
<polygon class="st1" points="294.4,115.2 294.4,0 204.8,0 204.8,512 409.6,512 409.6,115.2 "/>
<rect x="204.8" y="230.4" class="st2" width="128" height="204.8"/>
<rect x="76.8" y="230.4" class="st3" width="256" height="204.8"/>
<polygon class="st4" points="192,384 140.8,332.8 76.8,396.8 76.8,435.2 332.8,435.2 332.8,371.2 268.8,307.2 "/>
<path class="st5" d="M140.8,294.4c-14.1,0-25.6-11.5-25.6-25.6c0-14.1,11.5-25.6,25.6-25.6c14.1,0,25.6,11.5,25.6,25.6
	c0,6.8-2.7,13.3-7.5,18.1C154.1,291.7,147.6,294.4,140.8,294.4z"/>
<polygon class="st6" points="332.8,371.2 268.8,307.2 204.8,371.2 204.8,435.2 332.8,435.2 "/>
</svg>
