{
  "permissions": [
    {
      "type": "AwsAccounts",
      "accounts": [
        "530079012632"
      ]
    },
    {
      "type": "Private"
    }
  ],
  "runtimes": [
    {
      "value": "nodejs",
      "name": "NodeJS",
      "runtimePluginId": "amplify-nodejs-function-runtime-provider",
      "layerExecutablePath": "nodejs"
    }
  ]
}