<svg xmlns="http://www.w3.org/2000/svg" viewBox="0 0 23.17 21.44">
  <defs>
    <style>
      .cls-1 {
        fill: #fff;
      }
    </style>
  </defs>
  <g id="cart" transform="translate(-3.334 -23.047)">
    <g id="Group_1052" data-name="Group 1052" transform="translate(8.541 39.567)">
      <g id="Group_1051" data-name="Group 1051" transform="translate(0 0)">
        <path id="Path_1871" data-name="Path 1871" class="cls-1" d="M172.022,402.828a2.462,2.462,0,1,0,2.366,2.46A2.417,2.417,0,0,0,172.022,402.828Zm0,3.547a1.087,1.087,0,1,1,1.045-1.087A1.068,1.068,0,0,1,172.022,406.375Z" transform="translate(-169.656 -402.828)"/>
      </g>
    </g>
    <g id="Group_1054" data-name="Group 1054" transform="translate(16.839 39.567)">
      <g id="Group_1053" data-name="Group 1053" transform="translate(0 0)">
        <path id="Path_1872" data-name="Path 1872" class="cls-1" d="M329.967,402.828a2.462,2.462,0,1,0,2.366,2.46A2.417,2.417,0,0,0,329.967,402.828Zm0,3.547a1.087,1.087,0,1,1,1.045-1.087A1.068,1.068,0,0,1,329.967,406.375Z" transform="translate(-327.601 -402.828)"/>
      </g>
    </g>
    <g id="Group_1056" data-name="Group 1056" transform="translate(9.662 26.614)">
      <g id="Group_1055" data-name="Group 1055" transform="translate(0 0)">
        <path id="Path_1873" data-name="Path 1873" class="cls-1" d="M201.121,165.755h-9.465a.687.687,0,0,0,0,1.374h9.465a.687.687,0,0,0,0-1.374Z" transform="translate(-190.996 -165.755)"/>
      </g>
    </g>
    <g id="Group_1058" data-name="Group 1058" transform="translate(10.177 30.18)">
      <g id="Group_1057" data-name="Group 1057">
        <path id="Path_1874" data-name="Path 1874" class="cls-1" d="M209.9,231.035h-8.434a.687.687,0,0,0,0,1.374H209.9a.687.687,0,0,0,0-1.374Z" transform="translate(-200.802 -231.035)"/>
      </g>
    </g>
    <g id="Group_1060" data-name="Group 1060" transform="translate(3.335 23.047)">
      <g id="Group_1059" data-name="Group 1059" transform="translate(0 0)">
        <path id="Path_1875" data-name="Path 1875" class="cls-1" d="M25.206,23.047H4.633c-1,.073-1.1-.061-1.29.261S6.12,37.36,6.12,37.36a1.34,1.34,0,0,0,1.294,1.1H23.236a.687.687,0,0,0,0-1.374H7.414L7.025,35.12H23.359a1.34,1.34,0,0,0,1.294-1.1L26.5,24.7C26.58,24.292,25.6,23.047,25.206,23.047Zm-1.847,10.7H6.753L4.905,24.421h20.3Z" transform="translate(-3.335 -23.047)"/>
      </g>
    </g>
  </g>
</svg>
