{
  "lambdaLayers": [
    {
      "type": "ProjectLayer",
      "resourceName": "heramoment",
      "version": "Always choose latest version",
      "isLatestVersionSelected": true
    }
  ],
  "permissions": {
    "storage": {
      "RecurringMessages:@model(appsync)": [
        "create",
        "read",
        "update",
        "delete"
      ],
      "DailyRoster:@model(appsync)": [
        "create",
        "read",
        "update",
        "delete"
      ],
      "Message:@model(appsync)": [
        "create",
        "read",
        "update",
        "delete"
      ],
      "ReplaceByRoute:@model(appsync)": [
        "create",
        "read",
        "update"
      ],
      "Route:@model(appsync)": [
        "create",
        "read",
        "update",
        "delete"
      ],
      "Staff:@model(appsync)": [
        "create",
        "read",
        "update",
        "delete"
      ],
      "Tenant:@model(appsync)": [
        "create",
        "read",
        "update",
        "delete"
      ]
    }
  },
  "environmentVariableList": [
    {
      "cloudFormationParameterName": "metricGroupName",
      "environmentVariableName": "METRIC_GROUP_NAME"
    },
    {
      "cloudFormationParameterName": "origin",
      "environmentVariableName": "ORIGIN"
    }
  ]
}