{
  "permissions": {
    "api": {
      "hera": [
        "create",
        "read",
        "update",
        "delete"
      ]
    },
    "storage": {
      "Message:@model(appsync)": [
        "create",
        "read",
        "update",
        "delete"
      ]
    }
  },
  "lambdaLayers": [
    {
      "type": "ProjectLayer",
      "resourceName": "heraappsync",
      "env": "devqa",
      "version": "Always choose latest version",
      "isLatestVersionSelected": true
    }
  ]
}