<svg id="iconMenu" xmlns="http://www.w3.org/2000/svg" width="25.719" height="13.5" viewBox="0 0 25.719 13.5">
  <rect id="Rectangle_6" data-name="Rectangle 6" width="16.33" height="1.5" rx="0.75" transform="translate(9.389)" fill="#7e7e7e"/>
  <rect id="Rectangle_7" data-name="Rectangle 7" width="16.33" height="1.5" rx="0.75" transform="translate(9.389 12)" fill="#7e7e7e"/>
  <rect id="Rectangle_8" data-name="Rectangle 8" width="16.33" height="1.5" rx="0.75" transform="translate(9.389 6)" fill="#7e7e7e"/>
  <path id="Path_465" data-name="Path 465" d="M13.487,15a.8.8,0,0,0,.569-1.369L11.4,11l2.546-2.65a.8.8,0,1,0-1.137-1.129l-3.091,3.2a.8.8,0,0,0,0,1.121l3.2,3.2A.8.8,0,0,0,13.487,15Z" transform="translate(-9.494 -3.984)" fill="#7e7e7e"/>
</svg>
