<svg xmlns="http://www.w3.org/2000/svg" width="44" height="18.311" viewBox="0 0 44 18.311">
  <path id="iconStripe" d="M70.6,181.185c0-.482.386-.663,1.037-.663a6.73,6.73,0,0,1,3.026.784v-2.869a8.148,8.148,0,0,0-3.026-.567c-2.483,0-4.135,1.29-4.135,3.46,0,3.375,4.641,2.833,4.641,4.292,0,.567-.494.747-1.169.747a7.557,7.557,0,0,1-3.339-.976V188.3a8.392,8.392,0,0,0,3.339.7c2.544,0,4.292-1.254,4.292-3.448C75.251,181.908,70.6,182.547,70.6,181.185Zm8.258-5.762-2.978.639-.012,9.788A3.08,3.08,0,0,0,79.036,189a4.739,4.739,0,0,0,2.134-.4v-2.483c-.386.157-2.327.723-2.327-1.085v-4.34H81.17v-2.6H78.844Zm6.112,3.556-.193-.9h-2.64v10.693h3.05v-7.245a2.168,2.168,0,0,1,2.327-.639v-2.809A2.085,2.085,0,0,0,84.967,178.979Zm3.291-.9H91.32v10.693H88.258Zm0-.928,3.062-.663V174l-3.062.651Zm9.439.723a3.51,3.51,0,0,0-2.4.952l-.157-.759H92.453v14.249l3.05-.651.012-3.46a3.471,3.471,0,0,0,2.158.771c2.182,0,4.183-1.76,4.183-5.63C101.856,179.8,99.843,177.87,97.7,177.87Zm-.735,8.426a1.822,1.822,0,0,1-1.447-.579l-.012-4.533a1.835,1.835,0,0,1,1.459-.6c1.109,0,1.881,1.242,1.881,2.845C98.855,185.066,98.1,186.3,96.962,186.3Zm14.538-2.833c0-3.134-1.519-5.593-4.412-5.593s-4.665,2.471-4.665,5.569c0,3.677,2.073,5.533,5.063,5.533a6.751,6.751,0,0,0,3.387-.8v-2.447a6.557,6.557,0,0,1-2.99.675c-1.181,0-2.242-.41-2.375-1.856h5.979C111.476,184.391,111.5,183.764,111.5,183.463Zm-6.039-1.157c0-1.386.844-1.953,1.615-1.953.747,0,1.543.579,1.543,1.953Z" transform="translate(-67.5 -174)" fill="#6772e5"/>
</svg>
