<svg xmlns="http://www.w3.org/2000/svg" width="21" height="20.874" viewBox="0 0 21 20.874">
  <path id="iconFacebook" d="M52,42.9A10.5,10.5,0,1,0,39.857,53.274V45.933H37.188V42.9h2.669V40.585c0-2.632,1.568-4.083,3.967-4.083a16.178,16.178,0,0,1,2.352.205v2.581H44.851a1.519,1.519,0,0,0-1.713,1.638V42.9H46.05l-.467,3.033H43.138v7.336A10.493,10.493,0,0,0,52,42.9Z" transform="translate(-31 -32.4)" fill="#1877f2"/>
</svg>
