{
  "lambdaLayers": [
    {
      "type": "ProjectLayer",
      "resourceName": "herananoid",
      "version": "Always choose latest version",
      "isLatestVersionSelected": true
    },
    {
      "type": "ProjectLayer",
      "resourceName": "heraappsync",
      "version": "Always choose latest version",
      "isLatestVersionSelected": true
    },
    {
      "type": "ProjectLayer",
      "resourceName": "herashorturl",
      "version": "Always choose latest version",
      "isLatestVersionSelected": true
    },
    {
      "type": "ProjectLayer",
      "resourceName": "heramoment",
      "version": "Always choose latest version",
      "isLatestVersionSelected": true
    }
  ],
  "permissions": {
    "api": {
      "hera": [
        "create",
        "read",
        "update",
        "delete"
      ]
    },
    "storage": {
      "DailyRoster:@model(appsync)": [
        "create",
        "read",
        "update",
        "delete"
      ],
      "Message:@model(appsync)": [
        "create",
        "read",
        "update",
        "delete"
      ],
      "ReplaceByRoute:@model(appsync)": [
        "create",
        "read",
        "update",
        "delete"
      ],
      "Route:@model(appsync)": [
        "create",
        "read",
        "update",
        "delete"
      ],
      "Staff:@model(appsync)": [
        "create",
        "read",
        "update",
        "delete"
      ]
    }
  },
  "environmentVariableList": [
    {
      "cloudFormationParameterName": "origin",
      "environmentVariableName": "ORIGIN"
    },
    {
      "cloudFormationParameterName": "shortenUrlDomain",
      "environmentVariableName": "SHORTEN_URL_DOMAIN"
    }
  ]
}